…
Only the UK has no NAs for some fields.

Let’s take a look at the US as well…

``` r
owid_df %>% 
  filter(iso_code == 'USA') %>% 
  map(~sum(is.na(.))) %>% 
  as_tibble() %>% 
  gather(key = 'variable', value = 'n_na') %>% 
  arrange(desc(n_na))
```

    ## # A tibble: 122 x 2
    ##    variable                                 n_na
    ##    <chr>                                   <int>
    ##  1 carbon_intensity_elec                     121
    ##  2 biofuel_share_elec                        100
    ##  3 biofuel_elec_per_capita                   100
    ##  4 biofuel_electricity                       100
    ##  5 other_renewable_exc_biofuel_electricity   100
    ##  6 biofuel_cons_change_pct                    92
    ##  7 coal_share_elec                            85
    ##  8 coal_elec_per_capita                       85
    ##  9 electricity_generation                     85
    ## 10 coal_electricity                           85
    ## # … with 112 more rows

We can see for many years, we don’t have data about the USA’s
electricity breakdown by source. Wde saw that the UK has more fields
without NAs. Let’s do the same thing for the UK.

``` r
owid_df %>% 
  filter(iso_code == 'GBR') %>% 
  map(~sum(is.na(.))) %>% 
  as_tibble() %>% 
  gather(key = 'variable', value = 'n_na') %>% 
  arrange(desc(n_na))
```

    ## # A tibble: 122 x 2
    ##    variable                                 n_na
    ##    <chr>                                   <int>
    ##  1 biofuel_cons_change_pct                   104
    ##  2 biofuel_share_elec                        100
    ##  3 biofuel_elec_per_capita                   100
    ##  4 carbon_intensity_elec                     100
    ##  5 biofuel_electricity                       100
    ##  6 other_renewable_exc_biofuel_electricity   100
    ##  7 solar_cons_change_pct                      97
    ##  8 other_renewables_cons_change_pct           92
    ##  9 wind_cons_change_pct                       91
    ## 10 coal_share_elec                            85
    ## # … with 112 more rows
…
Let’s see which years actually have data on electricity.

``` r
uk_df %>% 
  select(electricity_generation, year) %>% 
  drop_na %>% 
  select(year) %>% 
  unique()
```

    ## # A tibble: 36 x 1
    ##     year
    ##    <dbl>
    ##  1  1985
    ##  2  1986
    ##  3  1987
    ##  4  1988
    ##  5  1989
    ##  6  1990
    ##  7  1991
    ##  8  1992
    ##  9  1993
    ## 10  1994
    ## # … with 26 more rows
…
Electricity generated from fossil fuels (coal, oil, gas).

``` r
uk_electricity %>% 
  mutate(
    all_fossil = coal_electricity + gas_electricity + oil_electricity
  ) %>% 
  select(year, all_fossil, fossil_electricity) %>% 
  mutate(diff = all_fossil - fossil_electricity)
```

    ## # A tibble: 36 x 4
    ##     year all_fossil fossil_electricity      diff
    ##    <dbl>      <dbl>              <dbl>     <dbl>
    ##  1  1985       228.               228. -2.84e-14
    ##  2  1986       234.               234.  0.      
    ##  3  1987       241.               241.  2.84e-14
    ##  4  1988       237.               237.  0.      
    ##  5  1989       234.               234.  0.      
    ##  6  1990       246.               246. -2.84e-14
    ##  7  1991       245.               245.  2.84e-14
    ##  8  1992       236.               236.  0.      
    ##  9  1993       226.               226.  2.84e-14
    ## 10  1994       229.               229.  0.      
    ## # … with 26 more rows
…
      is.na(biofuel_electricity), 
      all_renewable,
      all_renewable + biofuel_electricity
    ),
    all_renewable = if_else(
      is.na(other_renewable_exc_biofuel_electricity), 
      all_renewable,
      all_renewable + other_renewable_exc_biofuel_electricity
    )
  ) %>% 
  select(year, all_renewable, renewables_electricity) %>% 
  mutate(diff = all_renewable - renewables_electricity)
```

    ## # A tibble: 36 x 4
    ##     year all_renewable renewables_electricity   diff
    ##    <dbl>         <dbl>                  <dbl>  <dbl>
    ##  1  1985          3.96                   3.96  0    
    ##  2  1986          4.77                   4.77  0    
    ##  3  1987          4.19                   4.19  0    
    ##  4  1988          4.89                   4.89  0    
    ##  5  1989          4.78                   4.78  0    
    ##  6  1990          5.13                   5.72 -0.596
    ##  7  1991          4.54                   5.23 -0.688
    ##  8  1992          5.38                   6.32 -0.934
    ##  9  1993          4.52                   5.72 -1.20 
    ## 10  1994          5.46                   6.98 -1.52 
    ## # … with 26 more rows

``` r
uk_electricity %>% 
  select(
    electricity_generation, 
    fossil_electricity, 
    renewables_electricity,
    nuclear_electricity
  ) %>% 
  mutate(
    total = fossil_electricity + renewables_electricity + nuclear_electricity
  )
```

    ## # A tibble: 36 x 5
    ##    electricity_gener… fossil_electrici… renewables_elect… nuclear_electri… total
    ##                 <dbl>             <dbl>             <dbl>            <dbl> <dbl>
    ##  1               298.              228.              3.96             61.1  293.
    ##  2               301.              234.              4.77             59.1  298.
    ##  3               302.              241.              4.19             55.2  300.
    ##  4               309.              237.              4.89             63.5  305.
    ##  5               315.              234.              4.78             71.7  311.
    ##  6               320.              246.              5.72             65.7  318.
    ##  7               323.              245.              5.23             70.5  321.
    ##  8               321.              236.              6.32             76.8  319.
    ##  9               323.              226.              5.72             89.4  321.
    ## 10               327.              229.              6.98             88.3  325.
    ## # … with 26 more rows
…
